﻿{
  "version": "1.0.0-*",
  "buildOptions": {
    "emitEntryPoint": true
  },

  "dependencies": {
    "DotJson.Core": "1.0.2",
    "DotJson.Tools": "1.0.0-*",
    "Microsoft.Extensions.Logging": "1.0.0",
    "Microsoft.Extensions.Logging.Console": "1.0.0",
    "Microsoft.Extensions.Logging.Debug": "1.0.0",
    "Microsoft.Extensions.Logging.Filter": "1.0.0",
    "Microsoft.NETCore.App": {
      "type": "platform",
      "version": "1.0.1"
    },
    "Mono.Options": "4.4.0"
  },

  "frameworks": {
    "netcoreapp1.0": {
      "imports": "dnxcore50"
    }
  }
}
